digraph {
	nodesep="1.5"; ranksep=2;
	node [shape=plaintext];
	edge [color=gray];
	"~c_in(c_Pair(v_x,v_xb,t_a,t_a),v_r,tc_prod(t_a,t_a))" -> "[]" [labelfontcolor=black,labelfontsize="12",headlabel="Ordered Resolution\n{ }",labeldistance="6"];
	"c_in(c_Pair(v_y,v_z,t_a,t_a),v_r,tc_prod(t_a,t_a))" -> "~c_in(c_Pair(v_x,v_xb,t_a,t_a),v_r,tc_prod(t_a,t_a))" [labelfontcolor=black,labelfontsize="12",headlabel="Clausal Simplification\n{ }",labeldistance="6"];
	"~c_in(c_Pair(v_y,v_z,t_a,t_a),v_r,tc_prod(t_a,t_a)) | ~c_in(c_Pair(v_x,v_xb,t_a,t_a),v_r,tc_prod(t_a,t_a))" -> "~c_in(c_Pair(v_x,v_xb,t_a,t_a),v_r,tc_prod(t_a,t_a))" ;
	"~c_in(c_Pair(V_U_354,v_z,t_a,t_a),v_r,tc_prod(t_a,t_a)) | ~c_in(c_Pair(V_U_354,v_xaa(v_xb),t_a,t_a),v_r,tc_prod(t_a,t_a))" -> "~c_in(c_Pair(v_y,v_z,t_a,t_a),v_r,tc_prod(t_a,t_a)) | ~c_in(c_Pair(v_x,v_xb,t_a,t_a),v_r,tc_prod(t_a,t_a))" [labelfontcolor=black,labelfontsize="12",headlabel="Ordered Resolution\n{ V_U_354 <- v_y, V_U_5 <- v_xb }",labeldistance="6"];
	"~c_in(c_Pair(v_z,v_xa(V_U_30,v_xaa(v_xb),V_W_30),t_a,t_a),v_r,tc_prod(t_a,t_a)) | ~c_in(c_Pair(V_U_30,V_W_30,t_a,t_a),v_r,tc_prod(t_a,t_a)) | ~c_in(c_Pair(V_U_30,v_xaa(v_xb),t_a,t_a),v_r,tc_prod(t_a,t_a))" -> "~c_in(c_Pair(V_U_354,v_z,t_a,t_a),v_r,tc_prod(t_a,t_a)) | ~c_in(c_Pair(V_U_354,v_xaa(v_xb),t_a,t_a),v_r,tc_prod(t_a,t_a))" [labelfontcolor=black,labelfontsize="12",headlabel="Ordered Resolution\n{ V_W_8 <- v_z, V_U_30 <- V_U_8, V_V_8 <- v_xaa(v_xb), V_W_30 <- v_z }",labeldistance="6"];
	"~c_in(c_Pair(v_z,V_c_27,t_a,t_a),v_r,tc_prod(t_a,t_a)) | ~c_in(c_Pair(v_xaa(v_xb),V_c_27,t_a,t_a),v_r,tc_prod(t_a,t_a))" -> "~c_in(c_Pair(v_z,v_xa(V_U_30,v_xaa(v_xb),V_W_30),t_a,t_a),v_r,tc_prod(t_a,t_a)) | ~c_in(c_Pair(V_U_30,V_W_30,t_a,t_a),v_r,tc_prod(t_a,t_a)) | ~c_in(c_Pair(V_U_30,v_xaa(v_xb),t_a,t_a),v_r,tc_prod(t_a,t_a))" [labelfontcolor=black,labelfontsize="12",headlabel="Ordered Resolution\n{ V_V_7 <- v_xaa(v_xb), V_c_27 <- v_xa(V_U_7,v_xaa(v_xb),V_W_7) }",labeldistance="6"];
	"~c_in(c_Pair(v_z,V_c_25,t_a,t_a),v_r,tc_prod(t_a,t_a)) | ~c_in(c_Pair(v_xaa(v_xb),V_c_25,t_a,t_a),c_Transitive__Closure_Ortrancl(v_r,t_a),tc_prod(t_a,t_a))" -> "~c_in(c_Pair(v_z,V_c_27,t_a,t_a),v_r,tc_prod(t_a,t_a)) | ~c_in(c_Pair(v_xaa(v_xb),V_c_27,t_a,t_a),v_r,tc_prod(t_a,t_a))" [labelfontcolor=black,labelfontsize="12",headlabel="Ordered Resolution\n{ V_p_0 <- c_Pair(v_xaa(v_xb),V_c_25,t_a,t_a), V_r_0 <- v_r, T_a_0 <- t_a }",labeldistance="6"];
	"c_in(c_Pair(v_x,v_xb,t_a,t_a),v_r,tc_prod(t_a,t_a))" -> "~c_in(c_Pair(v_z,V_c_25,t_a,t_a),v_r,tc_prod(t_a,t_a)) | ~c_in(c_Pair(v_xaa(v_xb),V_c_25,t_a,t_a),c_Transitive__Closure_Ortrancl(v_r,t_a),tc_prod(t_a,t_a))" [labelfontcolor=black,labelfontsize="12",headlabel="Clausal Simplification\n{ }",labeldistance="6"];
	"~c_in(c_Pair(v_z,V_c_25,t_a,t_a),v_r,tc_prod(t_a,t_a)) | ~c_in(c_Pair(v_xaa(v_xb),V_c_25,t_a,t_a),c_Transitive__Closure_Ortrancl(v_r,t_a),tc_prod(t_a,t_a)) | ~c_in(c_Pair(v_x,v_xb,t_a,t_a),v_r,tc_prod(t_a,t_a))" -> "~c_in(c_Pair(v_z,V_c_25,t_a,t_a),v_r,tc_prod(t_a,t_a)) | ~c_in(c_Pair(v_xaa(v_xb),V_c_25,t_a,t_a),c_Transitive__Closure_Ortrancl(v_r,t_a),tc_prod(t_a,t_a))" ;
	"~c_in(c_Pair(v_z,V_c_10,t_a,t_a),v_r,tc_prod(t_a,t_a)) | ~c_in(c_Pair(V_b_10,V_c_10,t_a,t_a),c_Transitive__Closure_Ortrancl(v_r,t_a),tc_prod(t_a,t_a)) | ~c_in(c_Pair(v_xb,V_b_10,t_a,t_a),c_Transitive__Closure_Ortrancl(v_r,t_a),tc_prod(t_a,t_a))" -> "~c_in(c_Pair(v_z,V_c_25,t_a,t_a),v_r,tc_prod(t_a,t_a)) | ~c_in(c_Pair(v_xaa(v_xb),V_c_25,t_a,t_a),c_Transitive__Closure_Ortrancl(v_r,t_a),tc_prod(t_a,t_a)) | ~c_in(c_Pair(v_x,v_xb,t_a,t_a),v_r,tc_prod(t_a,t_a))" [labelfontcolor=black,labelfontsize="12",headlabel="Ordered Resolution\n{ V_U_4 <- v_xb, V_b_10 <- v_xaa(v_xb) }",labeldistance="6"];
	"~c_in(c_Pair(v_z,V_U_6,t_a,t_a),v_r,tc_prod(t_a,t_a)) | ~c_in(c_Pair(v_xb,V_U_6,t_a,t_a),c_Transitive__Closure_Ortrancl(v_r,t_a),tc_prod(t_a,t_a))" -> "~c_in(c_Pair(v_z,V_c_10,t_a,t_a),v_r,tc_prod(t_a,t_a)) | ~c_in(c_Pair(V_b_10,V_c_10,t_a,t_a),c_Transitive__Closure_Ortrancl(v_r,t_a),tc_prod(t_a,t_a)) | ~c_in(c_Pair(v_xb,V_b_10,t_a,t_a),c_Transitive__Closure_Ortrancl(v_r,t_a),tc_prod(t_a,t_a))" [labelfontcolor=black,labelfontsize="12",headlabel="Ordered Resolution\n{ V_a_1 <- v_xb, V_U_6 <- V_c_1, T_a_1 <- t_a, V_r_1 <- v_r }",labeldistance="6"];
	"~c_in(c_Pair(V_b_1,V_c_1,T_a_1,T_a_1),c_Transitive__Closure_Ortrancl(V_r_1,T_a_1),tc_prod(T_a_1,T_a_1)) | ~c_in(c_Pair(V_a_1,V_b_1,T_a_1,T_a_1),c_Transitive__Closure_Ortrancl(V_r_1,T_a_1),tc_prod(T_a_1,T_a_1)) | c_in(c_Pair(V_a_1,V_c_1,T_a_1,T_a_1),c_Transitive__Closure_Ortrancl(V_r_1,T_a_1),tc_prod(T_a_1,T_a_1))" -> "~c_in(c_Pair(v_z,V_c_10,t_a,t_a),v_r,tc_prod(t_a,t_a)) | ~c_in(c_Pair(V_b_10,V_c_10,t_a,t_a),c_Transitive__Closure_Ortrancl(v_r,t_a),tc_prod(t_a,t_a)) | ~c_in(c_Pair(v_xb,V_b_10,t_a,t_a),c_Transitive__Closure_Ortrancl(v_r,t_a),tc_prod(t_a,t_a))" ;
	"c_in(c_Pair(V_U_4,v_xaa(V_U_4),t_a,t_a),c_Transitive__Closure_Ortrancl(v_r,t_a),tc_prod(t_a,t_a)) | ~c_in(c_Pair(v_x,V_U_4,t_a,t_a),v_r,tc_prod(t_a,t_a))" -> "~c_in(c_Pair(v_z,V_c_25,t_a,t_a),v_r,tc_prod(t_a,t_a)) | ~c_in(c_Pair(v_xaa(v_xb),V_c_25,t_a,t_a),c_Transitive__Closure_Ortrancl(v_r,t_a),tc_prod(t_a,t_a)) | ~c_in(c_Pair(v_x,v_xb,t_a,t_a),v_r,tc_prod(t_a,t_a))" ;
	"~c_in(V_p_0,V_r_0,tc_prod(T_a_0,T_a_0)) | c_in(V_p_0,c_Transitive__Closure_Ortrancl(V_r_0,T_a_0),tc_prod(T_a_0,T_a_0))" -> "~c_in(c_Pair(v_z,V_c_27,t_a,t_a),v_r,tc_prod(t_a,t_a)) | ~c_in(c_Pair(v_xaa(v_xb),V_c_27,t_a,t_a),v_r,tc_prod(t_a,t_a))" ;
	"c_in(c_Pair(V_V_7,v_xa(V_U_7,V_V_7,V_W_7),t_a,t_a),v_r,tc_prod(t_a,t_a)) | ~c_in(c_Pair(V_U_7,V_W_7,t_a,t_a),v_r,tc_prod(t_a,t_a)) | ~c_in(c_Pair(V_U_7,V_V_7,t_a,t_a),v_r,tc_prod(t_a,t_a))" -> "~c_in(c_Pair(v_z,v_xa(V_U_30,v_xaa(v_xb),V_W_30),t_a,t_a),v_r,tc_prod(t_a,t_a)) | ~c_in(c_Pair(V_U_30,V_W_30,t_a,t_a),v_r,tc_prod(t_a,t_a)) | ~c_in(c_Pair(V_U_30,v_xaa(v_xb),t_a,t_a),v_r,tc_prod(t_a,t_a))" ;
	"c_in(c_Pair(V_W_8,v_xa(V_U_8,V_V_8,V_W_8),t_a,t_a),v_r,tc_prod(t_a,t_a)) | ~c_in(c_Pair(V_U_8,V_W_8,t_a,t_a),v_r,tc_prod(t_a,t_a)) | ~c_in(c_Pair(V_U_8,V_V_8,t_a,t_a),v_r,tc_prod(t_a,t_a))" -> "~c_in(c_Pair(V_U_354,v_z,t_a,t_a),v_r,tc_prod(t_a,t_a)) | ~c_in(c_Pair(V_U_354,v_xaa(v_xb),t_a,t_a),v_r,tc_prod(t_a,t_a))" ;
	"c_in(c_Pair(v_y,v_xaa(V_U_5),t_a,t_a),v_r,tc_prod(t_a,t_a)) | ~c_in(c_Pair(v_x,V_U_5,t_a,t_a),v_r,tc_prod(t_a,t_a))" -> "~c_in(c_Pair(v_y,v_z,t_a,t_a),v_r,tc_prod(t_a,t_a)) | ~c_in(c_Pair(v_x,v_xb,t_a,t_a),v_r,tc_prod(t_a,t_a))" ;
	"c_in(c_Pair(v_x,v_xb,t_a,t_a),v_r,tc_prod(t_a,t_a))" -> "[]" ;
}

